SGL Growth Models
…
No significant effects identified for day of week in model

Descriptives at each level

TotalCommentStatusSummary <- patients_only %>% 
  filter(date == "2022-01-19") 
sum(TotalCommentStatusSummary$message_count.x)

## [1] 15312

TotalCommentStatusSummary

## # A tibble: 89 x 41
## # Groups:   record_id [83]
##    message_count.x date       last_date  last_message_count recent_comments
##              <dbl> <date>     <date>                  <dbl>           <dbl>
##  1            3396 2022-01-19 2022-01-18               3396               0
##  2            3321 2022-01-19 2022-01-18               3321               0
##  3            2103 2022-01-19 2022-01-18               2101               2
##  4            1761 2022-01-19 2022-01-18               1761               0
##  5             557 2022-01-19 2022-01-18                550               7
##  6             449 2022-01-19 2022-01-18                449               0
##  7             373 2022-01-19 2022-01-18                372               1
##  8             350 2022-01-19 2022-01-18                350               0
##  9             280 2022-01-19 2022-01-18                279               1
## 10             259 2022-01-19 2022-01-18                259               0
## # ... with 79 more rows, and 36 more variables: time_interval <Duration>,
## #   daily_comments <Duration>, id.x <chr>, status.x <chr>, record_id <chr>,
## #   first_day_in_discord <date>, days_since_discord_first_comment <dbl>,
## #   users_in_discord <int>, recent_comments_total <dbl>, active_users <int>,
## #   Event End Date <chr>, Start Time <time>, End Time <time>, Title <chr>,
## #   Seasonal Event <dbl>, event_present <fct>, day_of_week <fct>,
## #   years_since_discord <dbl>, id.y <chr>, discord_user <chr>, ...
